=====================================================
Data: 18/10/2019 - Sexta-feira
Local:  Liberty - Predio 1 - 4o andar - Sala de reunião
=====================================================
Participantes
Arthur - Liberty
Danilo - Liberty
Koga - Liberty
Artur - Liberty
Monica - Resource
Amanda - Resource
Thais - Resource
=====================================================
STATUS REPORT

Apresentado o status report aferido em 17/10 referente a sprint 9.

...MONICA:
Exibe o grafico do cone da incerteza do MVP.
Mas faltam 38 histórias não pontuadas.

...KOGA:
Necessária a pontuacao destas histórias.
